# Wavefront OBJ created by obj_export_1.1.rb for SketchUp
# Copyright (C) 2006 jim.foltz@gmail.com
#

g 4223
v -14.1378503774158  0.698566971072893 -2.36220466731405
v -14.1378503774158  0.698566971072893 0.0
v -9.29524077014412  -1.3073076055373 0.0
v -9.29524077014412  -1.3073076055373 -2.36220466731405
v -19.3346106062288  1.38273343455898 -2.36220466731405
v -19.3346106062288  1.38273343455898 0.0
v -24.5313708350419  -38.0905794462938 0.0
v -19.3346106062289  -38.7747459097799 0.0
v -14.1378503774159  -38.0905794462938 0.0
v -9.29524077014414  -36.0847048696836 0.0
v -5.13679762635851  -32.8938192174808 0.0
v -1.9459119741557  -28.7353760736952 0.0
v 0.0599626024544868  -23.8927664664234 0.0
v 0.744129065940584  -18.6960062376104 0.0
v 0.0599626024544975  -13.4992460087975 0.0
v -1.9459119741557  -8.65663640152574 0.0
v -5.13679762635849  -4.49819325774008 0.0
v -24.5313708350418  0.6985669710729 0.0
v -29.3739804423136  -1.3073076055373 0.0
v -33.5324235860992  -4.49819325774008 0.0
v -36.723309238302  -8.65663640152572 0.0
v -38.7291838149122  -13.4992460087974 0.0
v -39.4133502783983  -18.6960062376104 0.0
v -38.7291838149122  -23.8927664664234 0.0
v -36.723309238302  -28.7353760736951 0.0
v -33.5324235860992  -32.8938192174808 0.0
v -29.3739804423136  -36.0847048696836 0.0
v -4.20904778646561  -14.6431238949887 0.0
v -15.2817282636071  -14.6431238949887 0.0
v -15.2817282636071  -22.7488885802322 0.0
v -4.20904778646561  -22.7488885802322 0.0
v -5.77340197929207  -26.5255736889091 0.0
v -8.26193012908739  -29.7686867147519 0.0
v -11.5050431549302  -32.2572148645472 0.0
v -15.2817282636071  -33.8215690573737 0.0
v -15.2817282636071  -3.5704434178472 0.0
v -11.5050431549302  -5.13479761067366 0.0
v -8.26193012908738  -7.62332576046897 0.0
v -5.77340197929206  -10.8664387863118 0.0
v -34.4601734259921  -22.7488885802322 0.0
v -23.3874929488506  -22.7488885802322 0.0
v -23.3874929488506  -33.8215690573737 0.0
v -27.1641780575275  -32.2572148645472 0.0
v -30.4072910833703  -29.7686867147519 0.0
v -32.8958192331656  -26.5255736889091 0.0
v -23.3874929488506  -14.6431238949887 0.0
v -34.4601734259921  -14.6431238949887 0.0
v -32.8958192331656  -10.8664387863118 0.0
v -30.4072910833703  -7.62332576046897 0.0
v -27.1641780575275  -5.13479761067365 0.0
v -23.3874929488506  -3.5704434178472 0.0
v -5.13679762635849  -4.49819325774008 -2.36220466731405
v -19.3346106062289  -38.7747459097799 -2.36220466731405
v -24.5313708350419  -38.0905794462938 -2.36220466731405
v -29.3739804423136  -36.0847048696836 -2.36220466731405
v -33.5324235860992  -32.8938192174808 -2.36220466731405
v -36.723309238302  -28.7353760736951 -2.36220466731405
v -38.7291838149122  -23.8927664664234 -2.36220466731405
v -39.4133502783983  -18.6960062376104 -2.36220466731405
v -38.7291838149122  -13.4992460087974 -2.36220466731405
v -36.723309238302  -8.65663640152572 -2.36220466731405
v -33.5324235860992  -4.49819325774008 -2.36220466731405
v -29.3739804423136  -1.3073076055373 -2.36220466731405
v -24.5313708350418  0.6985669710729 -2.36220466731405
v -1.9459119741557  -8.65663640152574 -2.36220466731405
v 0.0599626024544975  -13.4992460087975 -2.36220466731405
v 0.744129065940584  -18.6960062376104 -2.36220466731405
v 0.0599626024544868  -23.8927664664234 -2.36220466731405
v -1.9459119741557  -28.7353760736952 -2.36220466731405
v -5.13679762635851  -32.8938192174808 -2.36220466731405
v -9.29524077014414  -36.0847048696836 -2.36220466731405
v -14.1378503774159  -38.0905794462938 -2.36220466731405
v -4.20904778646561  -22.7488885802322 -2.36220466731405
v -15.2817282636071  -22.7488885802322 -2.36220466731405
v -15.2817282636071  -14.6431238949887 -2.36220466731405
v -4.20904778646561  -14.6431238949887 -2.36220466731405
v -5.77340197929206  -10.8664387863118 -2.36220466731405
v -8.26193012908738  -7.62332576046897 -2.36220466731405
v -11.5050431549302  -5.13479761067366 -2.36220466731405
v -15.2817282636071  -3.5704434178472 -2.36220466731405
v -15.2817282636071  -33.8215690573737 -2.36220466731405
v -11.5050431549302  -32.2572148645472 -2.36220466731405
v -8.26193012908739  -29.7686867147519 -2.36220466731405
v -5.77340197929207  -26.5255736889091 -2.36220466731405
v -34.4601734259921  -14.6431238949887 -2.36220466731405
v -23.3874929488506  -14.6431238949887 -2.36220466731405
v -23.3874929488506  -3.5704434178472 -2.36220466731405
v -27.1641780575275  -5.13479761067365 -2.36220466731405
v -30.4072910833703  -7.62332576046897 -2.36220466731405
v -32.8958192331656  -10.8664387863118 -2.36220466731405
v -23.3874929488506  -22.7488885802322 -2.36220466731405
v -34.4601734259921  -22.7488885802322 -2.36220466731405
v -32.8958192331656  -26.5255736889091 -2.36220466731405
v -30.4072910833703  -29.7686867147519 -2.36220466731405
v -27.1641780575275  -32.2572148645472 -2.36220466731405
v -23.3874929488506  -33.8215690573737 -2.36220466731405
v -23.3874929488506  -3.5704434178472 -2.36220466731405
v -23.3874929488506  -3.5704434178472 0.0
v -27.1641780575275  -5.13479761067365 0.0
v -27.1641780575275  -5.13479761067365 -2.36220466731405
v -23.3874929488506  -14.6431238949887 0.0
v -23.3874929488506  -14.6431238949887 -2.36220466731405
v -30.4072910833703  -7.62332576046897 0.0
v -30.4072910833703  -7.62332576046897 -2.36220466731405
v -34.4601734259921  -14.6431238949887 -2.36220466731405
v -34.4601734259921  -14.6431238949887 0.0
v -32.8958192331656  -10.8664387863118 -2.36220466731405
v -32.8958192331656  -10.8664387863118 0.0
v -15.2817282636071  -14.6431238949887 -2.36220466731405
v -15.2817282636071  -3.5704434178472 -2.36220466731405
v -15.2817282636071  -3.5704434178472 0.0
v -15.2817282636071  -14.6431238949887 0.0
v -11.5050431549302  -5.13479761067366 -2.36220466731405
v -11.5050431549302  -5.13479761067366 0.0
v -4.20904778646561  -14.6431238949887 0.0
v -4.20904778646561  -14.6431238949887 -2.36220466731405
v -8.26193012908738  -7.62332576046897 -2.36220466731405
v -8.26193012908738  -7.62332576046897 0.0
v -5.77340197929206  -10.8664387863118 0.0
v -5.77340197929206  -10.8664387863118 -2.36220466731405
v -4.20904778646561  -22.7488885802322 -2.36220466731405
v -4.20904778646561  -22.7488885802322 0.0
v -15.2817282636071  -22.7488885802322 0.0
v -15.2817282636071  -22.7488885802322 -2.36220466731405
v -5.77340197929207  -26.5255736889091 0.0
v -5.77340197929207  -26.5255736889091 -2.36220466731405
v -15.2817282636071  -33.8215690573737 -2.36220466731405
v -15.2817282636071  -33.8215690573737 0.0
v -8.26193012908739  -29.7686867147519 0.0
v -8.26193012908739  -29.7686867147519 -2.36220466731405
v -11.5050431549302  -32.2572148645472 0.0
v -11.5050431549302  -32.2572148645472 -2.36220466731405
v -23.3874929488506  -33.8215690573737 0.0
v -23.3874929488506  -22.7488885802322 0.0
v -23.3874929488506  -22.7488885802322 -2.36220466731405
v -23.3874929488506  -33.8215690573737 -2.36220466731405
v -34.4601734259921  -22.7488885802322 0.0
v -34.4601734259921  -22.7488885802322 -2.36220466731405
v -27.1641780575275  -32.2572148645472 -2.36220466731405
v -27.1641780575275  -32.2572148645472 0.0
v -32.8958192331656  -26.5255736889091 -2.36220466731405
v -32.8958192331656  -26.5255736889091 0.0
v -30.4072910833703  -29.7686867147519 -2.36220466731405
v -30.4072910833703  -29.7686867147519 0.0
f 1 2 3 4 
f 5 6 2 1 
f 7 8 9 10 11 12 13 14 15 16 17 3 2 6 18 19 20 21 22 23 24 25 26 27 
f 4 3 17 52 
f 53 54 55 56 57 58 59 60 61 62 63 64 5 1 4 52 65 66 67 68 69 70 71 72 
f 64 18 6 5 
f 69 68 13 12 
f 68 67 14 13 
f 67 66 15 14 
f 66 65 16 15 
f 65 52 17 16 
f 63 19 18 64 
f 62 20 19 63 
f 21 20 62 61 
f 22 21 61 60 
f 23 22 60 59 
f 24 23 59 58 
f 25 24 58 57 
f 26 25 57 56 
f 55 27 26 56 
f 54 7 27 55 
f 53 8 7 54 
f 72 9 8 53 
f 71 10 9 72 
f 70 11 10 71 
f 70 69 12 11 
f 97 98 99 100 
f 101 98 97 102 
f 100 99 103 104 
f 105 106 101 102 
f 107 104 103 108 
f 105 107 108 106 
f 109 110 111 112 
f 113 114 111 110 
f 109 112 115 116 
f 117 118 114 113 
f 115 119 120 116 
f 119 118 117 120 
f 121 122 123 124 
f 125 122 121 126 
f 127 124 123 128 
f 129 125 126 130 
f 127 128 131 132 
f 132 131 129 130 
f 133 134 135 136 
f 135 134 137 138 
f 139 140 133 136 
f 141 138 137 142 
f 143 144 140 139 
f 143 141 142 144 

